{
  "staging": {
    "awscloudformation": {
      "AuthRoleName": "amplify-amplify06d04fa69f5f4-staging-162146-authRole",
      "UnauthRoleArn": "arn:aws:iam::905418455099:role/amplify-amplify06d04fa69f5f4-staging-162146-unauthRole",
      "AuthRoleArn": "arn:aws:iam::905418455099:role/amplify-amplify06d04fa69f5f4-staging-162146-authRole",
      "Region": "us-east-2",
      "DeploymentBucketName": "amplify-amplify06d04fa69f5f4-staging-162146-deployment",
      "UnauthRoleName": "amplify-amplify06d04fa69f5f4-staging-162146-unauthRole",
      "StackName": "amplify-amplify06d04fa69f5f4-staging-162146",
      "StackId": "arn:aws:cloudformation:us-east-2:905418455099:stack/amplify-amplify06d04fa69f5f4-staging-162146/9e11f2d0-e543-11ee-96fa-02fb940a8e87",
      "AmplifyAppId": "d3a3ivnaljgllb"
    },
    "categories": {
      "auth": {
        "amplifyapp16482919": {}
      },
      "api": {
        "amplifyapp": {}
      },
      "storage": {
        "notes": {}
      }
    }
  }
}